# Blender v2.82 (sub 7) OBJ File: 'sambar_chain_cover4.blend'
# www.blender.org
mtllib sambar_chain_cover4-_working_model_sides.mtl
o _working_model_sides_Cube.003
v 0.057798 0.000000 -0.035239
v 0.062754 0.000000 -0.077688
v 0.046852 0.000000 -0.338249
v -0.036886 0.000000 -0.371965
v -0.050332 0.000000 -0.361593
v -0.057280 0.000000 -0.353059
v -0.064212 0.000000 -0.338454
v -0.076318 0.000000 -0.065506
v -0.057649 0.000000 0.000314
v -0.045603 0.000000 0.002544
v -0.041038 0.000000 -0.000438
v -0.035997 0.000000 0.001437
v -0.035849 0.000000 0.006468
v -0.035178 0.000000 0.008484
v 0.022318 0.000000 0.017004
v -0.042219 0.003048 -0.163906
v 0.028257 0.003048 -0.157178
v -0.007505 0.003048 -0.170185
v 0.008336 0.003048 -0.167165
v -0.026373 0.003048 -0.170448
v -0.014240 0.003048 -0.266052
v 0.062746 0.050800 -0.077688
v -0.057575 0.050800 0.000233
v -0.036504 0.050806 0.001928
v -0.042219 0.053848 -0.163906
v 0.028257 0.053848 -0.157178
v -0.007505 0.053848 -0.170185
v 0.008336 0.053848 -0.167165
v -0.026373 0.053848 -0.170448
v 0.018770 0.000000 -0.372445
v 0.032440 0.000000 -0.362301
v -0.008868 0.000000 -0.381500
v 0.039511 0.000000 -0.353874
v -0.023221 0.000000 -0.379580
v 0.004886 0.000000 -0.379823
v -0.050322 0.050800 -0.361584
v -0.057267 0.050800 -0.353051
v 0.018767 0.050800 -0.372439
v 0.032430 0.050800 -0.362291
v 0.039498 0.050800 -0.353866
v 0.054814 0.003048 -0.036334
v 0.059687 0.003048 -0.077773
v 0.043515 0.003048 -0.338593
v -0.035202 0.003048 -0.369407
v -0.048181 0.003048 -0.359386
v -0.054670 0.003048 -0.351413
v -0.061160 0.003048 -0.337698
v -0.073055 0.003048 -0.065885
v -0.055155 0.003048 -0.002415
v -0.046091 0.003048 -0.000720
v -0.041167 0.003048 -0.003294
v -0.034118 0.003048 -0.000385
v -0.031991 0.003048 0.005770
v 0.021149 0.003048 0.014332
v -0.043382 0.003048 -0.166723
v 0.029623 0.003048 -0.159903
v 0.009408 0.003048 -0.170037
v -0.027095 0.003048 -0.173447
v 0.059687 0.050800 -0.077773
v 0.043515 0.050800 -0.338593
v -0.055155 0.050800 -0.002415
v -0.046091 0.050800 -0.000720
v -0.041167 0.050800 -0.003294
v -0.031991 0.050800 0.005770
v 0.021149 0.050800 0.014332
v -0.043382 0.053848 -0.166723
v 0.029623 0.053848 -0.159903
v 0.009408 0.053848 -0.170037
v -0.027095 0.053848 -0.173447
v 0.017136 0.003048 -0.369854
v -0.009244 0.003048 -0.378475
v 0.030325 0.003048 -0.360058
v 0.036920 0.003048 -0.352197
v -0.022223 0.003048 -0.376614
v 0.003946 0.003048 -0.376838
v -0.054670 0.050800 -0.351413
v 0.036920 0.050800 -0.352197
v 0.003946 0.050800 -0.376838
v -0.014240 0.053848 -0.266052
v -0.011897 0.053848 -0.174717
v -0.034118 0.050800 -0.000385
v -0.009512 0.053848 -0.174778
v -0.011855 0.053848 -0.266113
v -0.011855 0.003048 -0.266113
v -0.009514 0.003048 -0.174866
v -0.011897 0.003048 -0.174717
v 0.046557 0.050800 -0.338782
v -0.076121 0.050800 -0.065529
v -0.045614 0.050800 0.002470
v -0.041016 0.050800 0.000066
v -0.035038 0.050806 0.005316
v 0.004877 0.050800 -0.379794
v 0.054814 0.050800 -0.036334
v -0.061160 0.050800 -0.337698
v -0.073055 0.050800 -0.065885
v -0.035202 0.050800 -0.369407
v -0.048181 0.050800 -0.359386
v 0.017136 0.050800 -0.369854
v -0.009244 0.050800 -0.378475
v 0.030325 0.050800 -0.360058
v -0.022223 0.050800 -0.376614
v 0.057756 0.053848 -0.035254
v 0.062746 0.053848 -0.077688
v -0.076121 0.053848 -0.065529
v -0.035039 0.053848 0.008366
v 0.054814 0.053848 -0.036334
v 0.059687 0.053848 -0.077773
v 0.043515 0.053848 -0.338593
v -0.061160 0.053848 -0.337698
v -0.073055 0.053848 -0.065885
v -0.055155 0.053848 -0.002415
v -0.046091 0.053848 -0.000720
v -0.041167 0.053848 -0.003294
v -0.034118 0.053848 -0.000385
v -0.031991 0.053848 0.005770
v 0.021149 0.053848 0.014332
v -0.022223 0.053848 -0.376614
v -0.035202 0.053848 -0.369407
v -0.048181 0.053848 -0.359386
v -0.054670 0.053848 -0.351413
v 0.030325 0.053848 -0.360058
v 0.017136 0.053848 -0.369854
v 0.036920 0.053848 -0.352197
v -0.009244 0.053848 -0.378475
v 0.003946 0.053848 -0.376838
v 0.057756 0.050800 -0.035254
v -0.035039 0.050800 0.008366
v -0.023211 0.050800 -0.379552
v -0.036882 0.050800 -0.371960
v -0.064205 0.050800 -0.337831
v -0.057575 0.053848 0.000233
v 0.022602 0.053848 0.017653
v -0.064205 0.053848 -0.337831
v 0.022602 0.050800 0.017653
v -0.008868 0.050800 -0.381500
v 0.062812 0.050800 -0.033399
v 0.068130 0.050800 -0.077540
v 0.051775 0.050800 -0.340113
v -0.081471 0.050800 -0.064908
v -0.061209 0.050800 0.004209
v -0.039138 0.050800 0.011860
v 0.024760 0.050800 0.022588
v -0.024910 0.050800 -0.384663
v -0.039844 0.050800 -0.376458
v -0.054081 0.050800 -0.365441
v -0.061844 0.050800 -0.355891
v -0.069442 0.050800 -0.339089
v 0.036124 0.050800 -0.366210
v 0.021641 0.050800 -0.376994
v 0.044038 0.050800 -0.356763
v -0.008899 0.050800 -0.386886
v 0.006496 0.050800 -0.384931
v -0.061209 0.053848 0.004209
v 0.051775 0.053848 -0.340113
v 0.044038 0.053848 -0.356763
v -0.008899 0.053848 -0.386886
v -0.024910 0.053848 -0.384663
v 0.062812 0.053848 -0.033399
v 0.068130 0.053848 -0.077540
v -0.081471 0.053848 -0.064908
v -0.039142 0.053848 0.011856
v 0.024760 0.053848 0.022588
v -0.039844 0.053848 -0.376458
v -0.054081 0.053848 -0.365441
v -0.061844 0.053848 -0.355891
v -0.069442 0.053848 -0.339089
v 0.036124 0.053848 -0.366210
v 0.021641 0.053848 -0.376994
v 0.006496 0.053848 -0.384931
vt 0.000000 0.000000
vt 0.000000 0.000000
vt 0.000000 0.000000
vt 0.000000 0.000000
vt 0.000000 0.000000
vt 0.000000 0.000000
vt 0.000000 0.000000
vt 0.000000 0.000000
vt 0.000000 0.000000
vt 0.000000 0.000000
vt 0.000000 0.000000
vt 0.000000 0.000000
vt 0.000000 0.000000
vt 0.000000 0.000000
vt 0.000000 0.000000
vt 0.000000 0.000000
vt 0.000000 0.000000
vt 0.000000 0.000000
vt 0.000000 0.000000
vt 0.000000 0.000000
vt 0.000000 0.000000
vt 0.000000 0.000000
vt 0.000000 0.000000
vt 0.000000 0.000000
vt 0.000000 0.000000
vt 0.000000 0.000000
vt 0.000000 0.000000
vt 0.000000 0.000000
vt 0.000000 0.000000
vt 0.000000 0.000000
vt 0.000000 0.000000
vt 0.000000 0.000000
vt 0.000000 0.000000
vt 0.000000 0.000000
vt 0.000000 0.000000
vt 0.000000 0.000000
vt 0.000000 0.000000
vt 0.000000 0.000000
vt 0.000000 0.000000
vt 0.000000 0.000000
vt 0.000000 0.000000
vt 0.000000 0.000000
vt 0.000000 0.000000
vt 0.000000 0.000000
vt 0.000000 0.000000
vt 0.000000 0.000000
vt 0.000000 0.000000
vt 0.000000 0.000000
vt 0.000000 0.000000
vt 0.000000 0.000000
vt 0.000000 0.000000
vt 0.000000 0.000000
vt 0.000000 0.000000
vt 0.000000 0.000000
vt 0.000000 0.000000
vt 0.000000 0.000000
vt 0.000000 0.000000
vt 0.000000 0.000000
vt 0.000000 0.000000
vt 0.000000 0.000000
vt 0.000000 0.000000
vt 0.000000 0.000000
vt 0.000000 0.000000
vt 0.000000 0.000000
vt 0.000000 0.000000
vt 0.000000 0.000000
vt 0.000000 0.000000
vt 0.000000 0.000000
vt 0.000000 0.000000
vt 0.000000 0.000000
vt 0.000000 0.000000
vt 0.000000 0.000000
vt 0.000000 0.000000
vt 0.000000 0.000000
vt 0.000000 0.000000
vt 0.000000 0.000000
vt 0.000000 0.000000
vt 0.000000 0.000000
vt 0.000000 0.000000
vt 0.000000 0.000000
vt 0.000000 0.000000
vt 0.000000 0.000000
vt 0.000000 0.000000
vt 0.000000 0.000000
vt 0.000000 0.000000
vt 0.000000 0.000000
vt 0.000000 0.000000
vt 0.000000 0.000000
vt 0.000000 0.000000
vt 0.000000 0.000000
vt 0.000000 0.000000
vt 0.000000 0.000000
vt 0.000000 0.000000
vt 0.000000 0.000000
vt 0.000000 0.000000
vt 0.000000 0.000000
vt 0.000000 0.000000
vt 0.000000 0.000000
vt 0.000000 0.000000
vt 0.000000 0.000000
vt 0.000000 0.000000
vt 0.000000 0.000000
vt 0.000000 0.000000
vt 0.000000 0.000000
vt 0.000000 0.000000
vt 0.000000 0.000000
vt 0.000000 0.000000
vt 0.000000 0.000000
vt 0.000000 0.000000
vt 0.000000 0.000000
vt 0.000000 0.000000
vt 0.000000 0.000000
vt 0.000000 0.000000
vt 0.000000 0.000000
vt 0.000000 0.000000
vt 0.000000 0.000000
vt 0.000000 0.000000
vt 0.000000 0.000000
vt 0.000000 0.000000
vt 0.000000 0.000000
vt 0.000000 0.000000
vt 0.000000 0.000000
vt 0.000000 0.000000
vt 0.000000 0.000000
vt 0.000000 0.000000
vt 0.000000 0.000000
vt 0.000000 0.000000
vt 0.000000 0.000000
vt 0.000000 0.000000
vt 0.000000 0.000000
vt 0.000000 0.000000
vt 0.000000 0.000000
vt 0.000000 0.000000
vt 0.000000 0.000000
vt 0.000000 0.000000
vt 0.000000 0.000000
vt 0.000000 0.000000
vt 0.000000 0.000000
vt 0.000000 0.000000
vt 0.000000 0.000000
vt 0.000000 0.000000
vt 0.000000 0.000000
vt 0.000000 0.000000
vt 0.000000 0.000000
vt 0.000000 0.000000
vt 0.000000 0.000000
vt 0.000000 0.000000
vt 0.000000 0.000000
vt 0.000000 0.000000
vt 0.000000 0.000000
vt 0.000000 0.000000
vt 0.000000 0.000000
vt 0.000000 0.000000
vt 0.000000 0.000000
vt 0.000000 0.000000
vt 0.000000 0.000000
vt 0.000000 0.000000
vt 0.000000 0.000000
vt 0.000000 0.000000
vt 0.000000 0.000000
vt 0.000000 0.000000
vt 0.000000 0.000000
vt 0.000000 0.000000
vt 0.000000 0.000000
vt 0.000000 0.000000
vt 0.000000 0.000000
vt 0.000000 0.000000
vt 0.000000 0.000000
vt 0.000000 0.000000
vn -0.4482 0.0000 0.8939
vn 0.8301 -0.0054 0.5576
vn -0.9623 0.0028 0.2721
vn -0.0139 0.0000 0.9999
vn 0.9932 0.0005 0.1164
vn -0.1829 0.0016 0.9831
vn 0.5067 -0.0037 0.8621
vn -0.3643 -0.0108 0.9312
vn -0.1873 0.0000 0.9823
vn -0.9821 0.0042 0.1883
vn -0.9913 0.0109 0.1311
vn -0.1528 -0.0045 0.9882
vn -0.9990 0.0023 -0.0440
vn 0.1221 0.0003 -0.9925
vn -0.9067 0.0028 -0.4217
vn -0.7755 0.0003 -0.6313
vn -0.1336 0.0003 -0.9910
vn 0.5961 0.0002 -0.8029
vn 0.9054 0.0006 -0.4246
vn -0.4861 0.0004 -0.8739
vn 0.4686 0.0004 -0.8834
vn 0.7661 0.0003 -0.6427
vn -0.6109 0.0002 -0.7917
vn 0.4482 0.0000 -0.8939
vn -0.9981 0.0000 0.0619
vn 0.9990 0.0000 0.0437
vn -0.8329 0.0000 -0.5534
vn -0.3816 0.0000 -0.9243
vn 0.1838 0.0000 -0.9830
vn 0.3815 0.0000 -0.9244
vn 0.9452 0.0000 -0.3265
vn 0.1419 0.0000 0.9899
vn 0.0000 1.0000 0.0000
vn 0.9039 0.0000 0.4277
vn 0.4855 0.0000 0.8742
vn -0.4679 0.0000 0.8838
vn -0.7661 0.0000 0.6427
vn 0.6111 0.0000 0.7915
vn -0.1232 0.0000 0.9924
vn -0.5963 0.0000 0.8028
vn 0.7756 0.0000 0.6313
vn 0.8940 0.0000 0.4482
vn -0.9243 0.0000 0.3816
vn -0.4633 0.0000 -0.8862
vn -0.0256 0.0000 -0.9997
vn 0.9981 0.0027 -0.0614
vn 0.3816 0.0000 0.9243
vn 0.0000 -1.0000 0.0000
vn -0.8998 0.0000 0.4362
vn -0.9932 0.0000 -0.1168
vn 0.2452 0.0008 -0.9695
vn -0.9997 0.0000 0.0256
vn -0.0832 0.0000 -0.9965
vn 0.9997 0.0000 -0.0256
vn -0.9990 0.0000 -0.0438
vn -0.9596 0.0000 0.2813
vn 0.8271 0.0000 0.5621
vn -0.9112 0.0000 -0.4120
vn -0.7760 0.0000 -0.6307
vn -0.1656 0.0006 0.9862
vn -0.6120 0.0000 -0.7909
vn -0.4815 0.0000 -0.8764
vn 0.4642 0.0000 -0.8858
vn 0.9928 0.0000 0.1196
vn 0.1260 0.0000 -0.9920
vn 0.9981 0.0000 -0.0622
vn -0.1375 0.0000 -0.9905
vn 0.5972 0.0000 -0.8021
vn 0.7666 0.0000 -0.6422
vn 0.9069 0.0000 -0.4214
vn -0.3275 0.0004 0.9449
vn 0.0002 -1.0000 -0.0001
vn 0.1591 0.0000 -0.9873
vn 0.9625 0.0000 -0.2714
usemtl Material.001
s off
f 19/1/1 17/2/1 26/3/1 28/4/1
f 126/5/2 134/6/2 15/7/2 1/8/2
f 8/9/3 9/10/3 23/11/3 88/12/3
f 20/13/4 18/14/4 27/15/4 29/16/4
f 1/8/5 2/17/5 22/18/5 126/5/5
f 9/10/6 10/19/6 89/20/6 23/11/6
f 10/19/7 11/21/7 90/22/7 89/20/7
f 11/21/8 12/23/8 24/24/8 90/22/8
f 18/14/9 19/1/9 28/4/9 27/15/9
f 12/23/10 13/25/10 91/26/10 24/24/10
f 13/25/11 14/27/11 127/28/11 91/26/11
f 14/27/12 15/7/12 134/6/12 127/28/12
f 8/9/13 88/12/13 130/29/13 7/30/13
f 32/31/14 135/32/14 92/33/14 35/34/14
f 7/30/15 130/29/15 37/35/15 6/36/15
f 6/36/16 37/35/16 36/37/16 5/38/16
f 34/39/17 128/40/17 135/32/17 32/31/17
f 30/41/18 38/42/18 39/43/18 31/44/18
f 33/45/19 40/46/19 87/47/19 3/48/19
f 4/49/20 129/50/20 128/40/20 34/39/20
f 35/34/21 92/33/21 38/42/21 30/41/21
f 31/44/22 39/43/22 40/46/22 33/45/22
f 5/38/23 36/37/23 129/50/23 4/49/23
f 57/51/24 68/52/24 67/53/24 56/54/24
f 43/55/25 42/56/25 59/57/25 107/58/25 108/59/25 60/60/25
f 48/61/26 47/62/26 94/63/26 109/64/26 110/65/26 95/66/26
f 93/67/27 41/68/27 54/69/27 65/70/27 116/71/27 106/72/27
f 55/73/28 66/74/28 69/75/28 58/76/28
f 49/77/29 61/78/29 111/79/29 112/80/29 62/81/29 50/82/29
f 52/83/30 51/84/30 63/85/30 113/86/30 114/87/30 81/88/30
f 52/83/31 81/88/31 114/87/31 115/89/31 64/90/31 53/91/31
f 101/92/32 74/93/32 71/94/32 99/95/32 124/96/32 117/97/32
f 103/98/33 107/58/33 106/72/33 102/99/33 158/100/33 159/101/33
f 47/62/34 46/102/34 76/103/34 120/104/34 109/64/34 94/63/34
f 44/105/35 74/93/35 101/92/35 117/97/35 118/106/35 96/107/35
f 75/108/36 70/109/36 98/110/36 122/111/36 125/112/36 78/113/36
f 72/114/37 73/115/37 77/116/37 123/117/37 121/118/37 100/119/37
f 45/120/38 44/105/38 96/107/38 118/106/38 119/121/38 97/122/38
f 99/95/39 71/94/39 75/108/39 78/113/39 125/112/39 124/96/39
f 70/109/40 72/114/40 100/119/40 121/118/40 122/111/40 98/110/40
f 46/102/41 45/120/41 97/122/41 119/121/41 120/104/41 76/103/41
f 26/3/42 17/2/42 56/54/42 67/53/42
f 16/123/43 25/124/43 66/74/43 55/73/43
f 41/68/33 42/56/33 43/55/33 73/115/33 72/114/33 70/109/33 75/108/33 71/94/33 74/93/33 44/105/33 45/120/33 46/102/33 47/62/33 48/61/33 49/77/33 50/82/33 51/84/33 52/83/33 53/91/33 54/69/33
f 50/82/44 62/81/44 112/80/44 113/86/44 63/85/44 51/84/44
f 79/125/45 83/126/45 84/127/45 21/128/45
f 3/48/46 87/47/46 22/18/46 2/17/46
f 20/13/47 29/16/47 25/124/47 16/123/47
f 1/8/48 15/7/48 14/27/48 13/25/48 12/23/48 11/21/48 10/19/48 9/10/48 8/9/48 7/30/48 6/36/48 5/38/48 4/49/48 34/39/48 32/31/48 35/34/48 30/41/48 31/44/48 33/45/48 3/48/48 2/17/48
f 73/115/49 43/55/49 60/60/49 108/59/49 123/117/49 77/116/49
f 41/68/50 93/67/50 106/72/50 107/58/50 59/57/50 42/56/50
f 28/4/33 26/3/33 67/53/33 68/52/33 82/129/33 80/130/33 69/75/33 66/74/33 25/124/33 29/16/33 27/15/33
f 80/130/33 82/129/33 83/126/33 79/125/33
f 82/129/51 68/52/51 57/51/51 85/131/51
f 79/125/52 21/128/52 86/132/52 80/130/52
f 69/75/53 80/130/53 86/132/53 58/76/53
f 82/129/54 85/131/54 84/127/54 83/126/54
f 19/1/48 18/14/48 20/13/48 16/123/48 55/73/48 58/76/48 86/132/48 21/128/48 84/127/48 85/131/48 57/51/48 56/54/48 17/2/48
f 102/99/33 106/72/33 116/71/33 132/133/33 162/134/33 158/100/33
f 111/79/33 110/65/33 104/135/33 160/136/33 153/137/33 131/138/33
f 132/133/33 116/71/33 115/89/33 105/139/33 161/140/33 162/134/33
f 112/80/33 111/79/33 131/138/33 153/137/33 161/140/33 105/139/33 115/89/33 114/87/33 113/86/33
f 127/28/48 134/6/48 142/141/48 141/142/48
f 108/59/33 107/58/33 103/98/33 159/101/33 154/143/33 155/144/33 167/145/33 168/146/33 169/147/33 156/148/33 157/149/33 163/150/33 164/151/33 165/152/33 166/153/33 133/154/33 109/64/33 120/104/33 119/121/33 118/106/33 117/97/33 124/96/33 125/112/33 122/111/33 121/118/33 123/117/33
f 147/155/55 139/156/55 160/136/55 166/153/55
f 139/156/56 140/157/56 153/137/56 160/136/56
f 147/155/48 146/158/48 37/35/48 130/29/48
f 142/141/57 136/159/57 158/100/57 162/134/57
f 147/155/58 166/153/58 165/152/58 146/158/58
f 146/158/59 165/152/59 164/151/59 145/160/59
f 37/35/48 146/158/48 145/160/48 36/37/48
f 145/160/48 144/161/48 129/50/48 36/37/48
f 141/142/60 142/141/60 162/134/60 161/140/60
f 144/161/61 145/160/61 164/151/61 163/150/61
f 144/161/62 163/150/62 157/149/62 143/162/62
f 129/50/48 144/161/48 143/162/48 128/40/48
f 152/163/63 169/147/63 168/146/63 149/164/63
f 152/163/48 149/164/48 38/42/48 92/33/48
f 136/159/64 137/165/64 159/101/64 158/100/64
f 151/166/48 152/163/48 92/33/48 135/32/48
f 156/148/65 169/147/65 152/163/65 151/166/65
f 137/165/66 138/167/66 154/143/66 159/101/66
f 130/29/48 88/12/48 139/156/48 147/155/48
f 143/162/67 157/149/67 156/148/67 151/166/67
f 143/162/48 151/166/48 135/32/48 128/40/48
f 126/5/48 22/18/48 137/165/48 136/159/48
f 149/164/68 168/146/68 167/145/68 148/168/68
f 22/18/48 87/47/48 138/167/48 137/165/48
f 38/42/48 149/164/48 148/168/48 39/43/48
f 88/12/48 23/11/48 140/157/48 139/156/48
f 148/168/69 167/145/69 155/144/69 150/169/69
f 39/43/48 148/168/48 150/169/48 40/46/48
f 150/169/48 138/167/48 87/47/48 40/46/48
f 154/143/70 138/167/70 150/169/70 155/144/70
f 134/6/48 126/5/48 136/159/48 142/141/48
f 104/135/33 110/65/33 109/64/33 133/154/33 166/153/33 160/136/33
f 153/137/71 140/157/71 141/142/71 161/140/71
f 89/20/72 90/22/72 24/24/72 91/26/72 127/28/72 141/142/72 140/157/72 23/11/72
f 53/91/73 64/90/73 115/89/73 116/71/73 65/70/73 54/69/73
f 48/61/74 95/66/74 110/65/74 111/79/74 61/78/74 49/77/74
