<?xml version="1.0" encoding="UTF-8"?>
<!DOCTYPE X3D PUBLIC "ISO//Web3D//DTD X3D 3.0//EN" "http://www.web3d.org/specifications/x3d-3.0.dtd">
<X3D version="3.0" profile="Immersive" xmlns:xsd="http://www.w3.org/2001/XMLSchema-instance" xsd:noNamespaceSchemaLocation="http://www.web3d.org/specifications/x3d-3.0.xsd">
	<head>
		<meta name="filename" content="sambar_chain_cover4-_working_model_sides.x3d" />
		<meta name="generator" content="Blender 2.82 (sub 7)" />
	</head>
	<Scene>
		<NavigationInfo headlight="true"
		                visibilityLimit="0.0"
		                type='"EXAMINE", "ANY"'
		                avatarSize="0.25, 1.75, 0.75"
		                />
		<Background DEF="WO_World"
		            groundColor="0.051 0.051 0.051"
		            skyColor="0.051 0.051 0.051"
		            />
		<Transform DEF="_working_model_sides_TRANSFORM"
		           translation="-0.021149 0.003048 -0.013316"
		           scale="1.000000 1.000000 1.000000"
		           rotation="0.000000 0.707107 0.707107 3.141593"
		           >
			<Transform DEF="_working_model_sides_ifs_TRANSFORM"
			           translation="0.000000 0.000000 0.000000"
			           scale="1.000000 1.000000 1.000000"
			           rotation="0.000000 1.000000 0.000000 0.000000"
			           >
				<Group DEF="group_ME_Cube_003">
					<Shape>
						<Appearance>
							<Material DEF="MA_Material_001"
							          diffuseColor="0.800 0.800 0.800"
							          specularColor="0.401 0.401 0.401"
							          emissiveColor="0.000 0.000 0.000"
							          ambientIntensity="0.000"
							          shininess="0.500"
							          transparency="0.0"
							          />
						</Appearance>
						<IndexedFaceSet solid="false"
						                texCoordIndex="0 1 2 3 -1 4 5 6 7 -1 8 9 10 11 -1 12 13 14 15 -1 16 17 18 19 -1 20 21 22 23 -1 24 25 26 27 -1 28 29 30 31 -1 32 33 34 35 -1 36 37 38 39 -1 40 41 42 43 -1 44 45 46 47 -1 48 49 50 51 -1 52 53 54 55 -1 56 57 58 59 -1 60 61 62 63 -1 64 65 66 67 -1 68 69 70 71 -1 72 73 74 75 -1 76 77 78 79 -1 80 81 82 83 -1 84 85 86 87 -1 88 89 90 91 -1 92 93 94 95 -1 96 97 98 99 100 101 -1 102 103 104 105 106 107 -1 108 109 110 111 112 113 -1 114 115 116 117 -1 118 119 120 121 122 123 -1 124 125 126 127 128 129 -1 130 131 132 133 134 135 -1 136 137 138 139 140 141 -1 142 143 144 145 146 147 -1 148 149 150 151 152 153 -1 154 155 156 157 158 159 -1 160 161 162 163 164 165 -1 166 167 168 169 170 171 -1 172 173 174 175 176 177 -1 178 179 180 181 182 183 -1 184 185 186 187 188 189 -1 190 191 192 193 194 195 -1 196 197 198 199 -1 200 201 202 203 -1 204 205 206 207 208 209 210 211 212 213 214 215 216 217 218 219 220 221 222 223 -1 224 225 226 227 228 229 -1 230 231 232 233 -1 234 235 236 237 -1 238 239 240 241 -1 242 243 244 245 246 247 248 249 250 251 252 253 254 255 256 257 258 259 260 261 262 -1 263 264 265 266 267 268 -1 269 270 271 272 273 274 -1 275 276 277 278 279 280 281 282 283 284 285 -1 286 287 288 289 -1 290 291 292 293 -1 294 295 296 297 -1 298 299 300 301 -1 302 303 304 305 -1 306 307 308 309 310 311 312 313 314 315 316 317 318 -1 319 320 321 322 323 324 -1 325 326 327 328 329 330 -1 331 332 333 334 335 336 -1 337 338 339 340 341 342 343 344 345 -1 346 347 348 349 -1 350 351 352 353 354 355 356 357 358 359 360 361 362 363 364 365 366 367 368 369 370 371 372 373 374 375 -1 376 377 378 379 -1 380 381 382 383 -1 384 385 386 387 -1 388 389 390 391 -1 392 393 394 395 -1 396 397 398 399 -1 400 401 402 403 -1 404 405 406 407 -1 408 409 410 411 -1 412 413 414 415 -1 416 417 418 419 -1 420 421 422 423 -1 424 425 426 427 -1 428 429 430 431 -1 432 433 434 435 -1 436 437 438 439 -1 440 441 442 443 -1 444 445 446 447 -1 448 449 450 451 -1 452 453 454 455 -1 456 457 458 459 -1 460 461 462 463 -1 464 465 466 467 -1 468 469 470 471 -1 472 473 474 475 -1 476 477 478 479 -1 480 481 482 483 -1 484 485 486 487 -1 488 489 490 491 -1 492 493 494 495 -1 496 497 498 499 -1 500 501 502 503 504 505 -1 506 507 508 509 -1 510 511 512 513 514 515 516 517 -1 518 519 520 521 522 523 -1 524 525 526 527 528 529 -1 "
						                coordIndex="18 16 25 27 -1 125 133 14 0 -1 7 8 22 87 -1 19 17 26 28 -1 0 1 21 125 -1 8 9 88 22 -1 9 10 89 88 -1 10 11 23 89 -1 17 18 27 26 -1 11 12 90 23 -1 12 13 126 90 -1 13 14 133 126 -1 7 87 129 6 -1 31 134 91 34 -1 6 129 36 5 -1 5 36 35 4 -1 33 127 134 31 -1 29 37 38 30 -1 32 39 86 2 -1 3 128 127 33 -1 34 91 37 29 -1 30 38 39 32 -1 4 35 128 3 -1 56 67 66 55 -1 42 41 58 106 107 59 -1 47 46 93 108 109 94 -1 92 40 53 64 115 105 -1 54 65 68 57 -1 48 60 110 111 61 49 -1 51 50 62 112 113 80 -1 51 80 113 114 63 52 -1 100 73 70 98 123 116 -1 102 106 105 101 157 158 -1 46 45 75 119 108 93 -1 43 73 100 116 117 95 -1 74 69 97 121 124 77 -1 71 72 76 122 120 99 -1 44 43 95 117 118 96 -1 98 70 74 77 124 123 -1 69 71 99 120 121 97 -1 45 44 96 118 119 75 -1 25 16 55 66 -1 15 24 65 54 -1 40 41 42 72 71 69 74 70 73 43 44 45 46 47 48 49 50 51 52 53 -1 49 61 111 112 62 50 -1 78 82 83 20 -1 2 86 21 1 -1 19 28 24 15 -1 0 14 13 12 11 10 9 8 7 6 5 4 3 33 31 34 29 30 32 2 1 -1 72 42 59 107 122 76 -1 40 92 105 106 58 41 -1 27 25 66 67 81 79 68 65 24 28 26 -1 79 81 82 78 -1 81 67 56 84 -1 78 20 85 79 -1 68 79 85 57 -1 81 84 83 82 -1 18 17 19 15 54 57 85 20 83 84 56 55 16 -1 101 105 115 131 161 157 -1 110 109 103 159 152 130 -1 131 115 114 104 160 161 -1 111 110 130 152 160 104 114 113 112 -1 126 133 141 140 -1 107 106 102 158 153 154 166 167 168 155 156 162 163 164 165 132 108 119 118 117 116 123 124 121 120 122 -1 146 138 159 165 -1 138 139 152 159 -1 146 145 36 129 -1 141 135 157 161 -1 146 165 164 145 -1 145 164 163 144 -1 36 145 144 35 -1 144 143 128 35 -1 140 141 161 160 -1 143 144 163 162 -1 143 162 156 142 -1 128 143 142 127 -1 151 168 167 148 -1 151 148 37 91 -1 135 136 158 157 -1 150 151 91 134 -1 155 168 151 150 -1 136 137 153 158 -1 129 87 138 146 -1 142 156 155 150 -1 142 150 134 127 -1 125 21 136 135 -1 148 167 166 147 -1 21 86 137 136 -1 37 148 147 38 -1 87 22 139 138 -1 147 166 154 149 -1 38 147 149 39 -1 149 137 86 39 -1 153 137 149 154 -1 133 125 135 141 -1 103 109 108 132 165 159 -1 152 139 140 160 -1 88 89 23 90 126 140 139 22 -1 52 63 114 115 64 53 -1 47 94 109 110 60 48 -1 "
						                >
							<Coordinate DEF="coords_ME_Cube_003"
							            point="0.036649 0.048554 -0.003048 0.041605 0.091004 -0.003048 0.025702 0.351565 -0.003048 -0.058035 0.385281 -0.003048 -0.071481 0.374909 -0.003048 -0.078429 0.366374 -0.003048 -0.085361 0.351769 -0.003048 -0.097467 0.078821 -0.003048 -0.078799 0.013001 -0.003048 -0.066752 0.010771 -0.003048 -0.062188 0.013753 -0.003048 -0.057147 0.011878 -0.003048 -0.056998 0.006848 -0.003048 -0.056327 0.004831 -0.003048 0.001169 -0.003688 -0.003048 -0.063368 0.177221 0.000000 0.007107 0.170494 0.000000 -0.028654 0.183501 0.000000 -0.012814 0.180481 0.000000 -0.047522 0.183763 0.000000 -0.035389 0.279367 0.000000 0.041596 0.091004 0.047752 -0.078725 0.013082 0.047752 -0.057653 0.011388 0.047758 -0.063368 0.177221 0.050800 0.007107 0.170494 0.050800 -0.028654 0.183501 0.050800 -0.012814 0.180481 0.050800 -0.047522 0.183763 0.050800 -0.002379 0.385760 -0.003048 0.011290 0.375617 -0.003048 -0.030017 0.394815 -0.003048 0.018361 0.367190 -0.003048 -0.044370 0.392896 -0.003048 -0.016263 0.393138 -0.003048 -0.071471 0.374899 0.047752 -0.078417 0.366366 0.047752 -0.002382 0.385755 0.047752 0.011281 0.375607 0.047752 0.018348 0.367182 0.047752 0.033664 0.049650 0.000000 0.038537 0.091088 0.000000 0.022365 0.351909 0.000000 -0.056351 0.382722 0.000000 -0.069330 0.372702 0.000000 -0.075819 0.364729 0.000000 -0.082309 0.351013 0.000000 -0.094204 0.079200 0.000000 -0.076305 0.015731 0.000000 -0.067240 0.014036 0.000000 -0.062317 0.016610 0.000000 -0.055267 0.013700 0.000000 -0.053141 0.007546 0.000000 0.000000 -0.001016 0.000000 -0.064531 0.180039 0.000000 0.008473 0.173218 0.000000 -0.011741 0.183353 0.000000 -0.048244 0.186763 0.000000 0.038537 0.091088 0.047752 0.022365 0.351909 0.047752 -0.076305 0.015731 0.047752 -0.067240 0.014036 0.047752 -0.062317 0.016610 0.047752 -0.053141 0.007546 0.047752 0.000000 -0.001016 0.047752 -0.064531 0.180039 0.050800 0.008473 0.173218 0.050800 -0.011741 0.183353 0.050800 -0.048244 0.186763 0.050800 -0.004014 0.383170 0.000000 -0.030393 0.391791 0.000000 0.009176 0.373373 0.000000 0.015771 0.365512 0.000000 -0.043372 0.389930 0.000000 -0.017203 0.390154 0.000000 -0.075819 0.364729 0.047752 0.015771 0.365512 0.047752 -0.017203 0.390154 0.047752 -0.035389 0.279367 0.050800 -0.033046 0.188032 0.050800 -0.055267 0.013700 0.047752 -0.030661 0.188093 0.050800 -0.033004 0.279428 0.050800 -0.033004 0.279428 0.000000 -0.030664 0.188182 0.000000 -0.033046 0.188032 0.000000 0.025407 0.352097 0.047752 -0.097271 0.078844 0.047752 -0.066764 0.010846 0.047752 -0.062165 0.013250 0.047752 -0.056187 0.008000 0.047758 -0.016272 0.393109 0.047752 0.033664 0.049650 0.047752 -0.082309 0.351013 0.047752 -0.094204 0.079200 0.047752 -0.056351 0.382722 0.047752 -0.069330 0.372702 0.047752 -0.004014 0.383170 0.047752 -0.030393 0.391791 0.047752 0.009176 0.373373 0.047752 -0.043372 0.389930 0.047752 0.036606 0.048570 0.050800 0.041596 0.091004 0.050800 -0.097271 0.078844 0.050800 -0.056189 0.004949 0.050800 0.033664 0.049650 0.050800 0.038537 0.091088 0.050800 0.022365 0.351909 0.050800 -0.082309 0.351013 0.050800 -0.094204 0.079200 0.050800 -0.076305 0.015731 0.050800 -0.067240 0.014036 0.050800 -0.062317 0.016610 0.050800 -0.055267 0.013700 0.050800 -0.053141 0.007546 0.050800 0.000000 -0.001016 0.050800 -0.043372 0.389930 0.050800 -0.056351 0.382722 0.050800 -0.069330 0.372702 0.050800 -0.075819 0.364729 0.050800 0.009176 0.373373 0.050800 -0.004014 0.383170 0.050800 0.015771 0.365512 0.050800 -0.030393 0.391791 0.050800 -0.017203 0.390154 0.050800 0.036606 0.048570 0.047752 -0.056189 0.004949 0.047752 -0.044360 0.392867 0.047752 -0.058032 0.385275 0.047752 -0.085354 0.351147 0.047752 -0.078725 0.013082 0.050800 0.001453 -0.004337 0.050800 -0.085354 0.351147 0.050800 0.001453 -0.004337 0.047752 -0.030017 0.394815 0.047752 0.041663 0.046714 0.047752 0.046980 0.090856 0.047752 0.030626 0.353429 0.047752 -0.102621 0.078223 0.047752 -0.082358 0.009106 0.047752 -0.060288 0.001456 0.047752 0.003611 -0.009272 0.047752 -0.046060 0.397978 0.047752 -0.060993 0.389774 0.047752 -0.075231 0.378756 0.047752 -0.082993 0.369206 0.047752 -0.090591 0.352404 0.047752 0.014975 0.379526 0.047752 0.000492 0.390310 0.047752 0.022889 0.370078 0.047752 -0.030048 0.400201 0.047752 -0.014653 0.398246 0.047752 -0.082358 0.009106 0.050800 0.030626 0.353429 0.050800 0.022889 0.370078 0.050800 -0.030048 0.400201 0.050800 -0.046060 0.397978 0.050800 0.041663 0.046714 0.050800 0.046980 0.090856 0.050800 -0.102621 0.078223 0.050800 -0.060291 0.001460 0.050800 0.003611 -0.009272 0.050800 -0.060993 0.389774 0.050800 -0.075231 0.378756 0.050800 -0.082993 0.369206 0.050800 -0.090591 0.352404 0.050800 0.014975 0.379526 0.050800 0.000492 0.390310 0.050800 -0.014653 0.398246 0.050800 "
							            />
							<TextureCoordinate point="0.0000 0.0000 0.0000 0.0000 0.0000 0.0000 0.0000 0.0000 0.0000 0.0000 0.0000 0.0000 0.0000 0.0000 0.0000 0.0000 0.0000 0.0000 0.0000 0.0000 0.0000 0.0000 0.0000 0.0000 0.0000 0.0000 0.0000 0.0000 0.0000 0.0000 0.0000 0.0000 0.0000 0.0000 0.0000 0.0000 0.0000 0.0000 0.0000 0.0000 0.0000 0.0000 0.0000 0.0000 0.0000 0.0000 0.0000 0.0000 0.0000 0.0000 0.0000 0.0000 0.0000 0.0000 0.0000 0.0000 0.0000 0.0000 0.0000 0.0000 0.0000 0.0000 0.0000 0.0000 0.0000 0.0000 0.0000 0.0000 0.0000 0.0000 0.0000 0.0000 0.0000 0.0000 0.0000 0.0000 0.0000 0.0000 0.0000 0.0000 0.0000 0.0000 0.0000 0.0000 0.0000 0.0000 0.0000 0.0000 0.0000 0.0000 0.0000 0.0000 0.0000 0.0000 0.0000 0.0000 0.0000 0.0000 0.0000 0.0000 0.0000 0.0000 0.0000 0.0000 0.0000 0.0000 0.0000 0.0000 0.0000 0.0000 0.0000 0.0000 0.0000 0.0000 0.0000 0.0000 0.0000 0.0000 0.0000 0.0000 0.0000 0.0000 0.0000 0.0000 0.0000 0.0000 0.0000 0.0000 0.0000 0.0000 0.0000 0.0000 0.0000 0.0000 0.0000 0.0000 0.0000 0.0000 0.0000 0.0000 0.0000 0.0000 0.0000 0.0000 0.0000 0.0000 0.0000 0.0000 0.0000 0.0000 0.0000 0.0000 0.0000 0.0000 0.0000 0.0000 0.0000 0.0000 0.0000 0.0000 0.0000 0.0000 0.0000 0.0000 0.0000 0.0000 0.0000 0.0000 0.0000 0.0000 0.0000 0.0000 0.0000 0.0000 0.0000 0.0000 0.0000 0.0000 0.0000 0.0000 0.0000 0.0000 0.0000 0.0000 0.0000 0.0000 0.0000 0.0000 0.0000 0.0000 0.0000 0.0000 0.0000 0.0000 0.0000 0.0000 0.0000 0.0000 0.0000 0.0000 0.0000 0.0000 0.0000 0.0000 0.0000 0.0000 0.0000 0.0000 0.0000 0.0000 0.0000 0.0000 0.0000 0.0000 0.0000 0.0000 0.0000 0.0000 0.0000 0.0000 0.0000 0.0000 0.0000 0.0000 0.0000 0.0000 0.0000 0.0000 0.0000 0.0000 0.0000 0.0000 0.0000 0.0000 0.0000 0.0000 0.0000 0.0000 0.0000 0.0000 0.0000 0.0000 0.0000 0.0000 0.0000 0.0000 0.0000 0.0000 0.0000 0.0000 0.0000 0.0000 0.0000 0.0000 0.0000 0.0000 0.0000 0.0000 0.0000 0.0000 0.0000 0.0000 0.0000 0.0000 0.0000 0.0000 0.0000 0.0000 0.0000 0.0000 0.0000 0.0000 0.0000 0.0000 0.0000 0.0000 0.0000 0.0000 0.0000 0.0000 0.0000 0.0000 0.0000 0.0000 0.0000 0.0000 0.0000 0.0000 0.0000 0.0000 0.0000 0.0000 0.0000 0.0000 0.0000 0.0000 0.0000 0.0000 0.0000 0.0000 0.0000 0.0000 0.0000 0.0000 0.0000 0.0000 0.0000 0.0000 0.0000 0.0000 0.0000 0.0000 0.0000 0.0000 0.0000 0.0000 0.0000 0.0000 0.0000 0.0000 0.0000 0.0000 0.0000 0.0000 0.0000 0.0000 0.0000 0.0000 0.0000 0.0000 0.0000 0.0000 0.0000 0.0000 0.0000 0.0000 0.0000 0.0000 0.0000 0.0000 0.0000 0.0000 0.0000 0.0000 0.0000 0.0000 0.0000 0.0000 0.0000 0.0000 0.0000 0.0000 0.0000 0.0000 0.0000 0.0000 0.0000 0.0000 0.0000 0.0000 0.0000 0.0000 0.0000 0.0000 0.0000 0.0000 0.0000 0.0000 0.0000 0.0000 0.0000 0.0000 0.0000 0.0000 0.0000 0.0000 0.0000 0.0000 0.0000 0.0000 0.0000 0.0000 0.0000 0.0000 0.0000 0.0000 0.0000 0.0000 0.0000 0.0000 0.0000 0.0000 0.0000 0.0000 0.0000 0.0000 0.0000 0.0000 0.0000 0.0000 0.0000 0.0000 0.0000 0.0000 0.0000 0.0000 0.0000 0.0000 0.0000 0.0000 0.0000 0.0000 0.0000 0.0000 0.0000 0.0000 0.0000 0.0000 0.0000 0.0000 0.0000 0.0000 0.0000 0.0000 0.0000 0.0000 0.0000 0.0000 0.0000 0.0000 0.0000 0.0000 0.0000 0.0000 0.0000 0.0000 0.0000 0.0000 0.0000 0.0000 0.0000 0.0000 0.0000 0.0000 0.0000 0.0000 0.0000 0.0000 0.0000 0.0000 0.0000 0.0000 0.0000 0.0000 0.0000 0.0000 0.0000 0.0000 0.0000 0.0000 0.0000 0.0000 0.0000 0.0000 0.0000 0.0000 0.0000 0.0000 0.0000 0.0000 0.0000 0.0000 0.0000 0.0000 0.0000 0.0000 0.0000 0.0000 0.0000 0.0000 0.0000 0.0000 0.0000 0.0000 0.0000 0.0000 0.0000 0.0000 0.0000 0.0000 0.0000 0.0000 0.0000 0.0000 0.0000 0.0000 0.0000 0.0000 0.0000 0.0000 0.0000 0.0000 0.0000 0.0000 0.0000 0.0000 0.0000 0.0000 0.0000 0.0000 0.0000 0.0000 0.0000 0.0000 0.0000 0.0000 0.0000 0.0000 0.0000 0.0000 0.0000 0.0000 0.0000 0.0000 0.0000 0.0000 0.0000 0.0000 0.0000 0.0000 0.0000 0.0000 0.0000 0.0000 0.0000 0.0000 0.0000 0.0000 0.0000 0.0000 0.0000 0.0000 0.0000 0.0000 0.0000 0.0000 0.0000 0.0000 0.0000 0.0000 0.0000 0.0000 0.0000 0.0000 0.0000 0.0000 0.0000 0.0000 0.0000 0.0000 0.0000 0.0000 0.0000 0.0000 0.0000 0.0000 0.0000 0.0000 0.0000 0.0000 0.0000 0.0000 0.0000 0.0000 0.0000 0.0000 0.0000 0.0000 0.0000 0.0000 0.0000 0.0000 0.0000 0.0000 0.0000 0.0000 0.0000 0.0000 0.0000 0.0000 0.0000 0.0000 0.0000 0.0000 0.0000 0.0000 0.0000 0.0000 0.0000 0.0000 0.0000 0.0000 0.0000 0.0000 0.0000 0.0000 0.0000 0.0000 0.0000 0.0000 0.0000 0.0000 0.0000 0.0000 0.0000 0.0000 0.0000 0.0000 0.0000 0.0000 0.0000 0.0000 0.0000 0.0000 0.0000 0.0000 0.0000 0.0000 0.0000 0.0000 0.0000 0.0000 0.0000 0.0000 0.0000 0.0000 0.0000 0.0000 0.0000 0.0000 0.0000 0.0000 0.0000 0.0000 0.0000 0.0000 0.0000 0.0000 0.0000 0.0000 0.0000 0.0000 0.0000 0.0000 0.0000 0.0000 0.0000 0.0000 0.0000 0.0000 0.0000 0.0000 0.0000 0.0000 0.0000 0.0000 0.0000 0.0000 0.0000 0.0000 0.0000 0.0000 0.0000 0.0000 0.0000 0.0000 0.0000 0.0000 0.0000 0.0000 0.0000 0.0000 0.0000 0.0000 0.0000 0.0000 0.0000 0.0000 0.0000 0.0000 0.0000 0.0000 0.0000 0.0000 0.0000 0.0000 0.0000 0.0000 0.0000 0.0000 0.0000 0.0000 0.0000 0.0000 0.0000 0.0000 0.0000 0.0000 0.0000 0.0000 0.0000 0.0000 0.0000 0.0000 0.0000 0.0000 0.0000 0.0000 0.0000 0.0000 0.0000 0.0000 0.0000 0.0000 0.0000 0.0000 0.0000 0.0000 0.0000 0.0000 0.0000 0.0000 0.0000 0.0000 0.0000 0.0000 0.0000 0.0000 0.0000 0.0000 0.0000 0.0000 0.0000 0.0000 0.0000 0.0000 0.0000 0.0000 0.0000 0.0000 0.0000 0.0000 0.0000 0.0000 0.0000 0.0000 0.0000 0.0000 0.0000 0.0000 0.0000 0.0000 0.0000 0.0000 0.0000 0.0000 0.0000 0.0000 0.0000 0.0000 0.0000 0.0000 0.0000 0.0000 0.0000 0.0000 0.0000 0.0000 0.0000 0.0000 0.0000 0.0000 0.0000 0.0000 0.0000 0.0000 0.0000 0.0000 0.0000 0.0000 0.0000 0.0000 0.0000 0.0000 0.0000 0.0000 0.0000 0.0000 0.0000 0.0000 0.0000 0.0000 0.0000 0.0000 0.0000 0.0000 0.0000 0.0000 0.0000 0.0000 0.0000 0.0000 0.0000 0.0000 0.0000 0.0000 0.0000 0.0000 0.0000 0.0000 0.0000 0.0000 0.0000 0.0000 0.0000 0.0000 0.0000 0.0000 0.0000 0.0000 0.0000 0.0000 0.0000 0.0000 0.0000 0.0000 0.0000 0.0000 0.0000 0.0000 0.0000 0.0000 0.0000 0.0000 0.0000 0.0000 0.0000 0.0000 0.0000 0.0000 0.0000 0.0000 0.0000 0.0000 0.0000 0.0000 0.0000 0.0000 0.0000 0.0000 0.0000 0.0000 0.0000 0.0000 0.0000 0.0000 0.0000 0.0000 0.0000 0.0000 0.0000 0.0000 0.0000 0.0000 0.0000 0.0000 0.0000 0.0000 0.0000 0.0000 0.0000 0.0000 0.0000 0.0000 0.0000 0.0000 0.0000 0.0000 0.0000 0.0000 0.0000 0.0000 0.0000 0.0000 0.0000 0.0000 0.0000 0.0000 0.0000 0.0000 0.0000 0.0000 0.0000 0.0000 0.0000 0.0000 0.0000 0.0000 0.0000 0.0000 0.0000 0.0000 0.0000 0.0000 0.0000 0.0000 0.0000 0.0000 0.0000 0.0000 0.0000 0.0000 0.0000 0.0000 0.0000 0.0000 0.0000 0.0000 0.0000 0.0000 0.0000 0.0000 0.0000 0.0000 0.0000 0.0000 0.0000 0.0000 0.0000 0.0000 0.0000 0.0000 0.0000 0.0000 0.0000 0.0000 0.0000 0.0000 0.0000 0.0000 0.0000 0.0000 0.0000 0.0000 0.0000 0.0000 0.0000 0.0000 0.0000 0.0000 0.0000 0.0000 0.0000 0.0000 0.0000 0.0000 0.0000 0.0000 0.0000 0.0000 0.0000 0.0000 0.0000 0.0000 0.0000 0.0000 0.0000 0.0000 0.0000 0.0000 0.0000 0.0000 0.0000 0.0000 0.0000 0.0000 0.0000 0.0000 0.0000 0.0000 0.0000 0.0000 0.0000 0.0000 0.0000 0.0000 0.0000 0.0000 0.0000 0.0000 0.0000 0.0000 0.0000 0.0000 0.0000 0.0000 0.0000 0.0000 0.0000 0.0000 0.0000 0.0000 0.0000 0.0000 0.0000 0.0000 0.0000 0.0000 0.0000 0.0000 0.0000 0.0000 0.0000 0.0000 0.0000 0.0000 0.0000 0.0000 0.0000 0.0000 0.0000 0.0000 0.0000 0.0000 0.0000 0.0000 0.0000 0.0000 0.0000 0.0000 0.0000 0.0000 0.0000 0.0000 0.0000 0.0000 0.0000 0.0000 0.0000 0.0000 0.0000 0.0000 0.0000 0.0000 0.0000 0.0000 0.0000 0.0000 0.0000 0.0000 " />
							<ColorRGBA color="1.000 1.000 1.000 1.000 1.000 1.000 1.000 1.000 1.000 1.000 1.000 1.000 1.000 1.000 1.000 1.000 1.000 1.000 1.000 1.000 1.000 1.000 1.000 1.000 1.000 1.000 1.000 1.000 1.000 1.000 1.000 1.000 1.000 1.000 1.000 1.000 1.000 1.000 1.000 1.000 1.000 1.000 1.000 1.000 1.000 1.000 1.000 1.000 1.000 1.000 1.000 1.000 1.000 1.000 1.000 1.000 1.000 1.000 1.000 1.000 1.000 1.000 1.000 1.000 1.000 1.000 1.000 1.000 1.000 1.000 1.000 1.000 1.000 1.000 1.000 1.000 1.000 1.000 1.000 1.000 1.000 1.000 1.000 1.000 1.000 1.000 1.000 1.000 1.000 1.000 1.000 1.000 1.000 1.000 1.000 1.000 1.000 1.000 1.000 1.000 1.000 1.000 1.000 1.000 1.000 1.000 1.000 1.000 1.000 1.000 1.000 1.000 1.000 1.000 1.000 1.000 1.000 1.000 1.000 1.000 1.000 1.000 1.000 1.000 1.000 1.000 1.000 1.000 1.000 1.000 1.000 1.000 1.000 1.000 1.000 1.000 1.000 1.000 1.000 1.000 1.000 1.000 1.000 1.000 1.000 1.000 1.000 1.000 1.000 1.000 1.000 1.000 1.000 1.000 1.000 1.000 1.000 1.000 1.000 1.000 1.000 1.000 1.000 1.000 1.000 1.000 1.000 1.000 1.000 1.000 1.000 1.000 1.000 1.000 1.000 1.000 1.000 1.000 1.000 1.000 1.000 1.000 1.000 1.000 1.000 1.000 1.000 1.000 1.000 1.000 1.000 1.000 1.000 1.000 1.000 1.000 1.000 1.000 1.000 1.000 1.000 1.000 1.000 1.000 1.000 1.000 1.000 1.000 1.000 1.000 1.000 1.000 1.000 1.000 1.000 1.000 1.000 1.000 1.000 1.000 1.000 1.000 1.000 1.000 1.000 1.000 1.000 1.000 1.000 1.000 1.000 1.000 1.000 1.000 1.000 1.000 1.000 1.000 1.000 1.000 1.000 1.000 1.000 1.000 1.000 1.000 1.000 1.000 1.000 1.000 1.000 1.000 1.000 1.000 1.000 1.000 1.000 1.000 1.000 1.000 1.000 1.000 1.000 1.000 1.000 1.000 1.000 1.000 1.000 1.000 1.000 1.000 1.000 1.000 1.000 1.000 1.000 1.000 1.000 1.000 1.000 1.000 1.000 1.000 1.000 1.000 1.000 1.000 1.000 1.000 1.000 1.000 1.000 1.000 1.000 1.000 1.000 1.000 1.000 1.000 1.000 1.000 1.000 1.000 1.000 1.000 1.000 1.000 1.000 1.000 1.000 1.000 1.000 1.000 1.000 1.000 1.000 1.000 1.000 1.000 1.000 1.000 1.000 1.000 1.000 1.000 1.000 1.000 1.000 1.000 1.000 1.000 1.000 1.000 1.000 1.000 1.000 1.000 1.000 1.000 1.000 1.000 1.000 1.000 1.000 1.000 1.000 1.000 1.000 1.000 1.000 1.000 1.000 1.000 1.000 1.000 1.000 1.000 1.000 1.000 1.000 1.000 1.000 1.000 1.000 1.000 1.000 1.000 1.000 1.000 1.000 1.000 1.000 1.000 1.000 1.000 1.000 1.000 1.000 1.000 1.000 1.000 1.000 1.000 1.000 1.000 1.000 1.000 1.000 1.000 1.000 1.000 1.000 1.000 1.000 1.000 1.000 1.000 1.000 1.000 1.000 1.000 1.000 1.000 1.000 1.000 1.000 1.000 1.000 1.000 1.000 1.000 1.000 1.000 1.000 1.000 1.000 1.000 1.000 1.000 1.000 1.000 1.000 1.000 1.000 1.000 1.000 1.000 1.000 1.000 1.000 1.000 1.000 1.000 1.000 1.000 1.000 1.000 1.000 1.000 1.000 1.000 1.000 1.000 1.000 1.000 1.000 1.000 1.000 1.000 1.000 1.000 1.000 1.000 1.000 1.000 1.000 1.000 1.000 1.000 1.000 1.000 1.000 1.000 1.000 1.000 1.000 1.000 1.000 1.000 1.000 1.000 1.000 1.000 1.000 1.000 1.000 1.000 1.000 1.000 1.000 1.000 1.000 1.000 1.000 1.000 1.000 1.000 1.000 1.000 1.000 1.000 1.000 1.000 1.000 1.000 1.000 1.000 1.000 1.000 1.000 1.000 1.000 1.000 1.000 1.000 1.000 1.000 1.000 1.000 1.000 1.000 1.000 1.000 1.000 1.000 1.000 1.000 1.000 1.000 1.000 1.000 1.000 1.000 1.000 1.000 1.000 1.000 1.000 1.000 1.000 1.000 1.000 1.000 1.000 1.000 1.000 1.000 1.000 1.000 1.000 1.000 1.000 1.000 1.000 1.000 1.000 1.000 1.000 1.000 1.000 1.000 1.000 1.000 1.000 1.000 1.000 1.000 1.000 1.000 1.000 1.000 1.000 1.000 1.000 1.000 1.000 1.000 1.000 1.000 1.000 1.000 1.000 1.000 1.000 1.000 1.000 1.000 1.000 1.000 1.000 1.000 1.000 1.000 1.000 1.000 1.000 1.000 1.000 1.000 1.000 1.000 1.000 1.000 1.000 1.000 1.000 1.000 1.000 1.000 1.000 1.000 1.000 1.000 1.000 1.000 1.000 1.000 1.000 1.000 1.000 1.000 1.000 1.000 1.000 1.000 1.000 1.000 1.000 1.000 1.000 1.000 1.000 1.000 1.000 1.000 1.000 1.000 1.000 1.000 1.000 1.000 1.000 1.000 1.000 1.000 1.000 1.000 1.000 1.000 1.000 1.000 1.000 1.000 1.000 1.000 1.000 1.000 1.000 1.000 1.000 1.000 1.000 1.000 1.000 1.000 1.000 1.000 1.000 1.000 1.000 1.000 1.000 1.000 1.000 1.000 1.000 1.000 1.000 1.000 1.000 1.000 1.000 1.000 1.000 1.000 " />
						</IndexedFaceSet>
					</Shape>
				</Group>
			</Transform>
		</Transform>
	</Scene>
</X3D>